<svg xmlns="http://www.w3.org/2000/svg" width="26.72" height="24" viewBox="0 0 26.72 24">
  <g id="Group_1411" data-name="Group 1411" transform="translate(-335 -709)">
    <g id="Group_6" data-name="Group 6" transform="translate(349.513 715.07)">
      <path id="Rectangle_2-2" data-name="Rectangle 2-2" d="M940.7,1374.341l-5.9,8.726-3.308-2.241,5.875-8.726Z" transform="translate(-929.498 -1372.1)" fill="none" stroke="#5dff00" stroke-linecap="round" stroke-linejoin="round" stroke-width="2"/>
      <path id="Path_4-2" data-name="Path 4-2" d="M923.323,1419.9l2.829,1.915-3.852,2.633Z" transform="translate(-922.3 -1409.499)" fill="none" stroke="#5dff00" stroke-linecap="round" stroke-linejoin="round" stroke-width="2"/>
    </g>
    <path id="Path_5" data-name="Path 5" d="M875.933,1370.8H862.376a2.182,2.182,0,0,1-2.176-2.176v-17.648a2.182,2.182,0,0,1,2.176-2.176h12.969a2.182,2.182,0,0,1,2.176,2.176v2.959" transform="translate(-524.2 -638.8)" fill="none" stroke="#5dff00" stroke-linecap="round" stroke-linejoin="round" stroke-width="2"/>
    <g id="Group_8" data-name="Group 8" transform="translate(339.068 715.723)">
      <line id="Line_4" data-name="Line 4" x2="9.792" transform="translate(0 8.661)" fill="none" stroke="#5dff00" stroke-linecap="round" stroke-linejoin="round" stroke-width="2"/>
      <line id="Line_5" data-name="Line 5" x2="9.792" transform="translate(0 4.33)" fill="none" stroke="#5dff00" stroke-linecap="round" stroke-linejoin="round" stroke-width="2"/>
      <path id="Path_11276" data-name="Path 11276" d="M0,0H9.792" transform="translate(0 0)" fill="none" stroke="#5dff00" stroke-linecap="round" stroke-width="2"/>
    </g>
  </g>
</svg>
